<?xml version="1.0" encoding="UTF-8"?>
<!DOCTYPE svg PUBLIC "-//W3C//DTD SVG 1.1//EN" "http://www.w3.org/Graphics/SVG/1.1/DTD/svg11.dtd">
<!-- Creator: CorelDRAW X8 -->
<svg xmlns="http://www.w3.org/2000/svg" xml:space="preserve" width="22.5mm" height="29.5mm" version="1.1" style="shape-rendering:geometricPrecision; text-rendering:geometricPrecision; image-rendering:optimizeQuality; fill-rule:evenodd; clip-rule:evenodd"
viewBox="0 0 2250 2950"
 xmlns:xlink="http://www.w3.org/1999/xlink">
 <defs>
  <style type="text/css">
   <![CDATA[
    .fil0 {fill:#5FC6F1}
    .fil1 {fill:#163E73}
    .fil2 {fill:#163E73;fill-rule:nonzero}
   ]]>
  </style>
 </defs>
 <g id="Слой_x0020_1">
  <metadata id="CorelCorpID_0Corel-Layer"/>
  <g id="_1938513798848">
   <path class="fil0" d="M1334 543c-142,4 -212,74 -210,210l-23 212 882 0 19 -166c28,-153 -16,-239 -134,-257l-534 1z"/>
   <path class="fil0" d="M1887 1905c-195,186 -460,301 -751,301 -195,0 -379,-52 -537,-142l390 0 59 -606 884 4 -45 443z"/>
   <path class="fil1" d="M1138 28c109,0 213,16 311,45l-136 0c-429,18 -675,230 -737,638l-126 1252c-246,-200 -403,-505 -403,-846 0,-602 487,-1089 1088,-1089l3 0z"/>
   <path class="fil2" d="M32 2924l29 -290c14,-88 67,-133 158,-137l145 0c84,6 123,51 118,136l-29 291 -114 0 13 -129 -189 -1 -13 130 -118 0zm192 -326c-30,1 -45,16 -45,45l-5 45 189 0 4 -35c6,-33 -3,-52 -28,-56l-115 1z"/>
   <polygon class="fil2" points="471,2925 598,2925 614,2761 773,2761 756,2926 884,2926 927,2498 800,2497 783,2655 625,2656 640,2498 513,2498 "/>
   <polygon class="fil2" points="940,2498 928,2618 1041,2618 1011,2926 1140,2926 1140,2925 1170,2619 1309,2619 1321,2498 "/>
   <path class="fil2" d="M1770 2497l139 0 -20 205c3,-26 15,-48 34,-66l127 -139 168 0 -160 193c-13,15 -14,30 -3,46l122 188 -170 0 -100 -146c-15,-20 -22,-42 -19,-67l-21 213 -140 0 43 -427z"/>
   <polygon class="fil2" points="1291,2925 1418,2925 1429,2800 1597,2727 1576,2926 1705,2926 1748,2498 1620,2497 1607,2621 1440,2695 1461,2498 1334,2498 "/>
  </g>
 </g>
</svg>
